[gd_scene load_steps=4 format=2]

[ext_resource path="res://Bullet/Bullet.tscn" type="PackedScene" id=1]
[ext_resource path="res://Textures/laserGreen.png" type="Texture" id=2]
[ext_resource path="res://Bullet/EnemyBullet.gd" type="Script" id=3]

[node name="EnemyBullet" instance=ExtResource( 1 )]
script = ExtResource( 3 )

[node name="Sprite" parent="." index="0"]
texture = ExtResource( 2 )

[node name="VisibilityNotifier2D" parent="." index="2"]
visible = true
